Simulating Quantities of Interest in a Linear Model • simqi
…
set.seed(8675309) # Jenny, I got your number...

A (Brief) Description of the Data

som_sample is a subset of the SOM
surveys in Sweden. It is the Swedish corollary to the General Social
Survey in the United States and offers a wide-reaching assessment of
Swedish public opinion about various aspects of society, politics, and
mass media. Deep knowledge about Sweden is not required for this
tutorial though some kind of comfort with modeling public opinion data
is assumed.

som_sample
#> # A tibble: 2,841 × 14
#>     year  idnr lan      lptrust satisdem trust_rf attitude_eu   age female  edu3
#>    <dbl> <dbl> <chr>      <dbl>    <dbl>    <dbl>       <dbl> <dbl>  <dbl> <dbl>
#>  1  2019 10003 Dalarna…   1.08         3        4           4    58      0     3
#>  2  2019 10004 Halland…  -0.296        3        3           3    76      1     1
#>  3  2019 10005 Örebro …  -0.343        2        2           4    66      0     3
#>  4  2019 10007 Västman…   0.512        4        3           4    62      0     2
#>  5  2019 10008 Stockho…   1.08         4        4           4    46      1     2
#>  6  2019 10009 Dalarna…  -2.08         1        1           1    24      0     2
#>  7  2019 10011 Västman…   0.346        3        3           3    69      0     2
#>  8  2019 10012 Söderma…  -2.08         1        5           2    85      0     3
#>  9  2019 10013 Västra …  -0.106        3        3           3    68      1     2
#> 10  2019 10014 Östergö…   1.08         3        2           4    31      1     2
#> # ℹ 2,831 more rows
#> # ℹ 4 more variables: ideo <dbl>, hinc <dbl>, resarea <dbl>, interestp <dbl>
…
sim_qi() will take the model (M1) and the
prediction grid we created above as “new data” and simulate some
nsim values of the dependent variable (default: 1000) from
the model’s vector of coefficients and the variance-covariance matrix.
We can optionally toggle return_newdata = TRUE to help us
with post-processing.

Sims <- sim_qi(M1, nsim = 100, newdata = newdat, return_newdata = TRUE)
Sims
#> # A tibble: 200 × 5
#>          y   sim female   age  edu3
#>      <dbl> <int>  <dbl> <dbl> <dbl>
#>  1 -0.156      1      0    54     2
#>  2  0.0484     1      1    54     2
#>  3 -0.185      2      0    54     2
#>  4  0.0142     2      1    54     2
#>  5 -0.154      3      0    54     2
#>  6  0.0509     3      1    54     2
#>  7 -0.200      4      0    54     2
#>  8  0.0893     4      1    54     2
#>  9 -0.163      5      0    54     2
#> 10  0.0187     5      1    54     2
#> # ℹ 190 more rows
…
