Get simulations from a model object — sim_qi • simqi
…
Data <- mtcars
Data$region <- c("Japan", "Japan", "Japan",
                 "USA", "USA", "USA", "USA",
                 "Europe", "Europe", "Europe", "Europe",
                 "Europe", "Europe", "Europe",
                 "USA", "USA", "USA", "Europe",
                 "Japan", "Japan", "Japan",
                 "USA", "USA", "USA", "USA",
                 "Europe", "Europe", "Europe",
                 "USA", "Europe", "Europe", "Europe")

M1 <- lm(mpg ~ hp + region, Data)

sim_qi(M1, 10)
#> # A tibble: 320 × 2
#>        y   sim
#>    <dbl> <int>
#>  1  23.7     1
#>  2  23.7     1
#>  3  24.3     1
#>  4  19.1     1
#>  5  16.6     1
#>  6  19.3     1
#>  7  14.0     1
#>  8  25.0     1
#>  9  23.8     1
#> 10  22.8     1
#> # ℹ 310 more rows

newdat <- data.frame(mpg = 0, region = c("Europe", "Japan", "USA"), hp = 123)

sim_qi(M1, nsim = 100, newdat, return_newdata = TRUE)
#> # A tibble: 300 × 5
#>        y   sim   mpg region    hp
#>    <dbl> <int> <dbl> <chr>  <dbl>
#>  1  21.6     1     0 Europe   123
#>  2  26.1     1     0 Japan    123
#>  3  19.4     1     0 USA      123
#>  4  22.4     2     0 Europe   123
#>  5  20.1     2     0 Japan    123
#>  6  19.3     2     0 USA      123
#>  7  22.9     3     0 Europe   123
#>  8  24.3     3     0 Japan    123
#>  9  19.7     3     0 USA      123
#> 10  22.5     4     0 Europe   123
#> # ℹ 290 more rows
…
